<?xml version="1.0" encoding="UTF-8" standalone="no"?>
<svg
   width="100mm"
   height="100mm"
   version="1.1"
   id="svg16"
   sodipodi:docname="324050.svg"
   inkscape:version="1.1.1 (3bf5ae0d25, 2021-09-20)"
   xmlns:inkscape="http://www.inkscape.org/namespaces/inkscape"
   xmlns:sodipodi="http://sodipodi.sourceforge.net/DTD/sodipodi-0.dtd"
   xmlns="http://www.w3.org/2000/svg"
   xmlns:svg="http://www.w3.org/2000/svg"
   xmlns:rdf="http://www.w3.org/1999/02/22-rdf-syntax-ns#"
   xmlns:cc="http://creativecommons.org/ns#"
   xmlns:dc="http://purl.org/dc/elements/1.1/">
  <metadata
     id="metadata22">
    <rdf:RDF>
      <cc:Work
         rdf:about="">
        <dc:format>image/svg+xml</dc:format>
        <dc:type
           rdf:resource="http://purl.org/dc/dcmitype/StillImage" />
      </cc:Work>
    </rdf:RDF>
  </metadata>
  <defs
     id="defs20" />
  <sodipodi:namedview
     pagecolor="#ffffff"
     bordercolor="#666666"
     borderopacity="1"
     objecttolerance="10"
     gridtolerance="10"
     guidetolerance="10"
     inkscape:pageopacity="0"
     inkscape:pageshadow="2"
     inkscape:window-width="1280"
     inkscape:window-height="961"
     id="namedview18"
     showgrid="false"
     inkscape:zoom="5.6568542"
     inkscape:cx="213.98819"
     inkscape:cy="147.87371"
     inkscape:window-x="-8"
     inkscape:window-y="-8"
     inkscape:window-maximized="1"
     inkscape:current-layer="svg16"
     units="mm"
     inkscape:pagecheckerboard="0"
     inkscape:document-units="mm"
     showguides="true"
     inkscape:guide-bbox="true">
    <sodipodi:guide
       position="188.97638,188.97638"
       orientation="0,1"
       id="guide830"
       inkscape:label=""
       inkscape:locked="false"
       inkscape:color="rgb(0,0,255)" />
    <sodipodi:guide
       position="188.97638,188.97638"
       orientation="1,0"
       id="guide832" />
    <sodipodi:guide
       position="245.66911,243.77953"
       orientation="1,0"
       id="guide834" />
    <sodipodi:guide
       position="245.66911,243.77953"
       orientation="0,-1"
       id="guide836" />
    <sodipodi:guide
       position="225.27304,263.23026"
       orientation="0,-1"
       id="guide838" />
    <sodipodi:guide
       position="225.27304,263.23026"
       orientation="1,0"
       id="guide840" />
    <sodipodi:guide
       position="225.27317,224.32832"
       orientation="0,-1"
       id="guide842" />
  </sodipodi:namedview>
  <!-- Created with Method Draw - http://github.com/duopixel/Method-Draw/ -->
  <g
     id="g8"
     transform="translate(0,-448.8189)">
    <title
       id="title2">background</title>
    <rect
       id="canvas_background"
       height="602"
       width="487"
       y="-1"
       x="-1"
       style="fill:none" />
    <g
       display="none"
       overflow="visible"
       y="0"
       x="0"
       height="100%"
       width="100%"
       id="canvasGrid"
       style="display:none;overflow:visible">
      <rect
         y="0"
         x="0"
         height="100%"
         width="100%"
         id="rect5"
         style="fill:url(#gridpattern);stroke-width:0" />
    </g>
  </g>
  <path
     style="fill:none;stroke:#000000;stroke-width:3.77953;stroke-linecap:butt;stroke-linejoin:miter;stroke-miterlimit:4;stroke-dasharray:none;stroke-opacity:1"
     d="m 188.97638,188.97638 -1.9e-4,-75.59055"
     id="path4708"
     inkscape:connector-curvature="0" />
  <path
     style="fill:none;stroke:#000000;stroke-width:3.77953;stroke-linecap:butt;stroke-linejoin:miter;stroke-miterlimit:4;stroke-dasharray:none;stroke-opacity:1"
     d="m 188.97619,134.17323 h 56.69292"
     id="path4708-3"
     inkscape:connector-curvature="0" />
  <path
     style="fill:none;stroke:#000000;stroke-width:3.77952756;stroke-linecap:butt;stroke-linejoin:miter;stroke-opacity:1;stroke-miterlimit:4;stroke-dasharray:none"
     d="m 225.27304,114.7225 20.39607,19.45073 -20.39607,19.45121"
     id="path877" />
</svg>
