<?xml version="1.0" encoding="UTF-8" standalone="no"?>
<!-- Created with Inkscape (http://www.inkscape.org/) -->

<svg
   width="100mm"
   height="100mm"
   viewBox="0 0 100 100"
   version="1.1"
   id="svg2618"
   inkscape:version="1.1.1 (3bf5ae0d25, 2021-09-20)"
   sodipodi:docname="410100.svg"
   xmlns:inkscape="http://www.inkscape.org/namespaces/inkscape"
   xmlns:sodipodi="http://sodipodi.sourceforge.net/DTD/sodipodi-0.dtd"
   xmlns="http://www.w3.org/2000/svg"
   xmlns:svg="http://www.w3.org/2000/svg">
  <sodipodi:namedview
     id="namedview2620"
     pagecolor="#ffffff"
     bordercolor="#666666"
     borderopacity="1.0"
     inkscape:pageshadow="2"
     inkscape:pageopacity="0.0"
     inkscape:pagecheckerboard="0"
     inkscape:document-units="mm"
     showgrid="false"
     showguides="true"
     inkscape:guide-bbox="true"
     inkscape:zoom="5.6568542"
     inkscape:cx="209.65716"
     inkscape:cy="203.20481"
     inkscape:window-width="1280"
     inkscape:window-height="961"
     inkscape:window-x="-8"
     inkscape:window-y="-8"
     inkscape:window-maximized="1"
     inkscape:current-layer="layer1">
    <sodipodi:guide
       position="25,9.9999998"
       orientation="0,1"
       id="guide2679"
       inkscape:label=""
       inkscape:locked="false"
       inkscape:color="rgb(0,0,255)" />
    <sodipodi:guide
       position="50,50"
       orientation="0,1"
       id="guide2681"
       inkscape:label=""
       inkscape:locked="false"
       inkscape:color="rgb(0,0,255)" />
    <sodipodi:guide
       position="25,-2.277553e-08"
       orientation="1,0"
       id="guide2683" />
    <sodipodi:guide
       position="12.5,9.9999998"
       orientation="-1,0"
       id="guide2687"
       inkscape:label=""
       inkscape:locked="false"
       inkscape:color="rgb(0,0,255)" />
    <sodipodi:guide
       position="50,50"
       orientation="-1,0"
       id="guide2689"
       inkscape:label=""
       inkscape:locked="false"
       inkscape:color="rgb(0,0,255)" />
    <sodipodi:guide
       position="0,4.9999998"
       orientation="-1,0"
       id="guide2837"
       inkscape:label=""
       inkscape:locked="false"
       inkscape:color="rgb(0,0,255)" />
    <sodipodi:guide
       position="4.9999999,9.4999998"
       orientation="-1,0"
       id="guide1037"
       inkscape:label=""
       inkscape:locked="false"
       inkscape:color="rgb(0,0,255)" />
    <sodipodi:guide
       position="20,9.4999998"
       orientation="-1,0"
       id="guide1467"
       inkscape:label=""
       inkscape:locked="false"
       inkscape:color="rgb(0,0,255)" />
    <sodipodi:guide
       position="-53.507359,65"
       orientation="-1,0"
       id="guide1547"
       inkscape:label=""
       inkscape:locked="false"
       inkscape:color="rgb(0,0,255)" />
    <sodipodi:guide
       position="74.999999,57.005208"
       orientation="-1,0"
       id="guide854"
       inkscape:label=""
       inkscape:locked="false"
       inkscape:color="rgb(0,0,255)" />
    <sodipodi:guide
       position="50,55"
       orientation="0,1"
       id="guide998"
       inkscape:label=""
       inkscape:locked="false"
       inkscape:color="rgb(0,0,255)" />
    <sodipodi:guide
       position="50,65"
       orientation="0,1"
       id="guide1000"
       inkscape:label=""
       inkscape:locked="false"
       inkscape:color="rgb(0,0,255)" />
    <sodipodi:guide
       position="53.975081,45"
       orientation="0,1"
       id="guide1039"
       inkscape:label=""
       inkscape:locked="false"
       inkscape:color="rgb(0,0,255)" />
    <sodipodi:guide
       position="53.507359,35"
       orientation="0,1"
       id="guide1041"
       inkscape:label=""
       inkscape:locked="false"
       inkscape:color="rgb(0,0,255)" />
  </sodipodi:namedview>
  <defs
     id="defs2615" />
  <g
     inkscape:label="Plast 1"
     inkscape:groupmode="layer"
     id="layer1">
    <g
       id="g977"
       transform="translate(-25,4.500054)">
      <path
         style="fill:none;stroke:#00ffff;stroke-width:0.999899;stroke-linecap:butt;stroke-linejoin:miter;stroke-miterlimit:4;stroke-dasharray:none;stroke-opacity:1"
         d="m 37.500003,50 c 10,-5.1e-5 4.999998,-9.000152 12.5,-9.000102 7.5,5.1e-5 2.5,9.000051 12.5,9.000102"
         id="path3098"
         sodipodi:nodetypes="csc" />
      <path
         id="path3098-3"
         style="fill:none;stroke:#00ffff;stroke-width:0.9999;stroke-linecap:butt;stroke-linejoin:miter;stroke-miterlimit:4;stroke-dasharray:none;stroke-opacity:1"
         d="m 25.000004,40.999896 c 0,0 0,0 0,0 7.499998,5.3e-5 2.500001,9.000054 12.499999,9.000104" />
      <path
         id="path971"
         style="fill:none;stroke:#00ffff;stroke-width:3.77915;stroke-linecap:butt;stroke-linejoin:miter;stroke-miterlimit:4;stroke-dasharray:none;stroke-opacity:1"
         d="m 236.22048,188.97638 c 37.79528,-1.9e-4 18.89763,-34.01632 47.2441,-34.01614"
         transform="scale(0.26458333)" />
    </g>
    <g
       id="g977-1"
       transform="translate(-24.999998,-15.499946)">
      <path
         style="fill:none;stroke:#00ffff;stroke-width:0.999899;stroke-linecap:butt;stroke-linejoin:miter;stroke-miterlimit:4;stroke-dasharray:none;stroke-opacity:1"
         d="m 37.500003,50 c 10,-5.1e-5 4.999998,-9.000152 12.5,-9.000102 7.5,5.1e-5 2.5,9.000051 12.5,9.000102"
         id="path3098-5"
         sodipodi:nodetypes="csc" />
      <path
         id="path3098-3-3"
         style="fill:none;stroke:#00ffff;stroke-width:0.9999;stroke-linecap:butt;stroke-linejoin:miter;stroke-miterlimit:4;stroke-dasharray:none;stroke-opacity:1"
         d="m 25.000004,40.999896 c 0,0 0,0 0,0 7.499998,5.3e-5 2.500001,9.000054 12.499999,9.000104" />
      <path
         id="path971-5"
         style="fill:none;stroke:#00ffff;stroke-width:3.77915;stroke-linecap:butt;stroke-linejoin:miter;stroke-miterlimit:4;stroke-dasharray:none;stroke-opacity:1"
         d="m 236.22048,188.97638 c 37.79528,-1.9e-4 18.89763,-34.01632 47.2441,-34.01614"
         transform="scale(0.26458333)" />
    </g>
    <g
       id="g977-1-1"
       transform="translate(-25,24.500054)">
      <path
         style="fill:none;stroke:#00ffff;stroke-width:0.999899;stroke-linecap:butt;stroke-linejoin:miter;stroke-miterlimit:4;stroke-dasharray:none;stroke-opacity:1"
         d="m 37.500003,50 c 10,-5.1e-5 4.999998,-9.000152 12.5,-9.000102 7.5,5.1e-5 2.5,9.000051 12.5,9.000102"
         id="path3098-5-5"
         sodipodi:nodetypes="csc" />
      <path
         id="path3098-3-3-4"
         style="fill:none;stroke:#00ffff;stroke-width:0.9999;stroke-linecap:butt;stroke-linejoin:miter;stroke-miterlimit:4;stroke-dasharray:none;stroke-opacity:1"
         d="m 25.000004,40.999896 c 0,0 0,0 0,0 7.499998,5.3e-5 2.500001,9.000054 12.499999,9.000104" />
      <path
         id="path971-5-0"
         style="fill:none;stroke:#00ffff;stroke-width:3.77915;stroke-linecap:butt;stroke-linejoin:miter;stroke-miterlimit:4;stroke-dasharray:none;stroke-opacity:1"
         d="m 236.22048,188.97638 c 37.79528,-1.9e-4 18.89763,-34.01632 47.2441,-34.01614"
         transform="scale(0.26458333)" />
    </g>
    <g
       id="g977-6"
       transform="translate(24.999999,4.500054)">
      <path
         style="fill:none;stroke:#00ffff;stroke-width:0.999899;stroke-linecap:butt;stroke-linejoin:miter;stroke-miterlimit:4;stroke-dasharray:none;stroke-opacity:1"
         d="m 37.500003,50 c 10,-5.1e-5 4.999998,-9.000152 12.5,-9.000102 7.5,5.1e-5 2.5,9.000051 12.5,9.000102"
         id="path3098-0"
         sodipodi:nodetypes="csc" />
      <path
         id="path3098-3-4"
         style="fill:none;stroke:#00ffff;stroke-width:0.9999;stroke-linecap:butt;stroke-linejoin:miter;stroke-miterlimit:4;stroke-dasharray:none;stroke-opacity:1"
         d="m 25.000004,40.999896 c 0,0 0,0 0,0 7.499998,5.3e-5 2.500001,9.000054 12.499999,9.000104" />
      <path
         id="path971-6"
         style="fill:none;stroke:#00ffff;stroke-width:3.77915;stroke-linecap:butt;stroke-linejoin:miter;stroke-miterlimit:4;stroke-dasharray:none;stroke-opacity:1"
         d="m 236.22048,188.97638 c 37.79528,-1.9e-4 18.89763,-34.01632 47.2441,-34.01614"
         transform="scale(0.26458333)" />
    </g>
    <g
       id="g977-1-8"
       transform="translate(25.000001,-15.499946)">
      <path
         style="fill:none;stroke:#00ffff;stroke-width:0.999899;stroke-linecap:butt;stroke-linejoin:miter;stroke-miterlimit:4;stroke-dasharray:none;stroke-opacity:1"
         d="m 37.500003,50 c 10,-5.1e-5 4.999998,-9.000152 12.5,-9.000102 7.5,5.1e-5 2.5,9.000051 12.5,9.000102"
         id="path3098-5-3"
         sodipodi:nodetypes="csc" />
      <path
         id="path3098-3-3-3"
         style="fill:none;stroke:#00ffff;stroke-width:0.9999;stroke-linecap:butt;stroke-linejoin:miter;stroke-miterlimit:4;stroke-dasharray:none;stroke-opacity:1"
         d="m 25.000004,40.999896 c 0,0 0,0 0,0 7.499998,5.3e-5 2.500001,9.000054 12.499999,9.000104" />
      <path
         id="path971-5-8"
         style="fill:none;stroke:#00ffff;stroke-width:3.77915;stroke-linecap:butt;stroke-linejoin:miter;stroke-miterlimit:4;stroke-dasharray:none;stroke-opacity:1"
         d="m 236.22048,188.97638 c 37.79528,-1.9e-4 18.89763,-34.01632 47.2441,-34.01614"
         transform="scale(0.26458333)" />
    </g>
    <g
       id="g977-1-1-1"
       transform="translate(24.999999,24.500054)">
      <path
         style="fill:none;stroke:#00ffff;stroke-width:0.999899;stroke-linecap:butt;stroke-linejoin:miter;stroke-miterlimit:4;stroke-dasharray:none;stroke-opacity:1"
         d="m 37.500003,50 c 10,-5.1e-5 4.999998,-9.000152 12.5,-9.000102 7.5,5.1e-5 2.5,9.000051 12.5,9.000102"
         id="path3098-5-5-5"
         sodipodi:nodetypes="csc" />
      <path
         id="path3098-3-3-4-3"
         style="fill:none;stroke:#00ffff;stroke-width:0.9999;stroke-linecap:butt;stroke-linejoin:miter;stroke-miterlimit:4;stroke-dasharray:none;stroke-opacity:1"
         d="m 25.000004,40.999896 c 0,0 0,0 0,0 7.499998,5.3e-5 2.500001,9.000054 12.499999,9.000104" />
      <path
         id="path971-5-0-4"
         style="fill:none;stroke:#00ffff;stroke-width:3.77915;stroke-linecap:butt;stroke-linejoin:miter;stroke-miterlimit:4;stroke-dasharray:none;stroke-opacity:1"
         d="m 236.22048,188.97638 c 37.79528,-1.9e-4 18.89763,-34.01632 47.2441,-34.01614"
         transform="scale(0.26458333)" />
    </g>
  </g>
</svg>
